{
  "type": "service_account",
  "project_id": "fao-gift",
  "private_key_id": "4fea6084df43d43b6bfa6032e2c52e2cbcc2fa17",
  "private_key": "-----BEGIN PRIVATE KEY-----\nMIIEvAIBADANBgkqhkiG9w0BAQEFAASCBKYwggSiAgEAAoIBAQCR3pfuXCcZhim5\nIzOZr+KBeHocsbQkoP0aHygGOdvo+j+HsqL8CpZOjzwoX7499ASgo0s1cIatnoNg\nvJ5C0jz2g/ovbQsvHSMU36xFzZVaarUdxMGqVDhJIRbHGGEP78NFqn/WJ6kf3c7F\nGQNBPBwE72Qu1yceNBPeAEmNyqT5wrJw2VsM3CouSS0op4gDqu1n63wedGly1CBp\nqNvbIFk1Dzw8nfrLiRejqE/tj36T+IwbSmrND796SoNNtbObqJ+XEjGzYLW44q1S\nEraUqMCQnFtZt8fblgYoFrxJeUyHFhawpkv8+4ij0qfxOP9zk66RP2x5KyeS1seW\nF/zOZEBjAgMBAAECggEAEc9NWjNILCv0S4Afxw5G0oCk2tIGPklQUxsmEN80RBV3\nIkNOS7BN5RjvQw1a4JzlimjFlahqg9I3FN2SrnKVh5JaPpDKwnLam1bVOs88rVsa\nnUrY9nSX9rMii9EkhgSZIUK4SavH+3W3ztrHSfS5MGUQz03s9G7D/4v7bw4kkcCO\nQTtnZH4HWaS6bU/zS/QjXoTUXonrj/av5mmZ4UY0rrh7A8MmTkLfTuj5XcJbfFjB\nSGh6fQQaJzDuZlQi4A5BV+Dc5pBt5pF7TNBMq/9IYrOersadYUKicj132l8W8ndf\nnKF/R/No1MThacjD+bHzkHCjSUQ0OmkLkpExlmFw2QKBgQDHJ+nuykxUNDw4YlPb\nVMMRcwVC7Fo3L6+ZgTFpY5KC8FSFBiIBnTPWcVd0J36aN6/fQtHXO2+RmdGcDeeZ\nlc/JHP/dVSTyJ7VWahZmnzo7GklU4It6CgYm9O26dbx2gaivp/AyZY4h+3OayFCQ\nVVyfBZsL+7Z9EiSxLmRjrQs/jwKBgQC7gRrp8Z2sNDZEmMcQ0JStR1b7b9Gh2RvZ\nuZdK37i7E5UW3Xk6/SHa67rCHOec4CGiQuC30qN60nTdKbvenaFAq0rF2yrjeaZX\nrN0zBD7/vcEtPJFzhXs8IkKAunxvFLMBvjS+Ob1Lm2FseonelCfQHItKz/NrICcA\nm9OAUSqH7QKBgHtqg7CkEtsXp731SSwhgeT9V2RanamXVoWVJy69Mt0L3AS3gTlo\n1ufsQxrLIsyk98suWGW+AmzDWr8PatelnCdwXismCYg7DUgo5AriX66iopEDuct+\nDMP1gqDLN2hk/0kjlFlWz9bFQaXIvwxCqewuCCBL85HcPXrDWhje8pqHAoGAHlyF\ncyRAl8XMk8b5VOuxZ22J1CUDGOYC8Hpw2Rro2sIM/irWmoqqlLxe/VeY2XoheBjE\nMn/VIOo7KiS72wxDNCmIbglTJIpqOQAwwTYKzXZ4dU69bqtKjS4u/pEz3PjJE5st\nBzBqSnfaiqo88OGkoLo+g9qwW8RVDHAvCzQZYvECgYBOOWuD7kcr/Xx2tDs65FBM\n1gz+ysAqRlpUzn6W3o5uCQnD6wtSR1MK0CtKxvXanIqgy1BNFmsTyjL/rtLbtRU1\nQlhzLvBll1Hx0MouKQmVGS6pZfAn2xqjv39Y5PlNna8HqLKR6JI/qaUMEVluzmUh\ne5PebXyJcGpWB5+NJEJUxw==\n-----END PRIVATE KEY-----\n",
  "client_email": "firebase-adminsdk-ujpbu@fao-gift.iam.gserviceaccount.com",
  "client_id": "115420193001341041038",
  "auth_uri": "https://accounts.google.com/o/oauth2/auth",
  "token_uri": "https://oauth2.googleapis.com/token",
  "auth_provider_x509_cert_url": "https://www.googleapis.com/oauth2/v1/certs",
  "client_x509_cert_url": "https://www.googleapis.com/robot/v1/metadata/x509/firebase-adminsdk-ujpbu%40fao-gift.iam.gserviceaccount.com"
}
